BARRLE_SHIFTER.sim/sim_1/behav/xsim/simulate.log
Time resolution is 1 ps
S=0000,A_P=0000000000000000,B_P=0000000000000000
S=0001,A_P=0000000000000000,B_P=0000000000000000
S=0010,A_P=0000000000000000,B_P=0000000000000000
S=0011,A_P=0000000000000000,B_P=0000000000000000
S=0100,A_P=0000000000000000,B_P=0000000000000000
S=0101,A_P=0000000000000000,B_P=0000000000000000
S=0110,A_P=0000000000000000,B_P=0000000000000000
S=0111,A_P=0000000000000000,B_P=0000000000000000
S=1000,A_P=0000000000000000,B_P=0000000000000000
S=1001,A_P=0000000000000000,B_P=0000000000000000
S=1010,A_P=0000000000000000,B_P=0000000000000000
S=1011,A_P=0000000000000000,B_P=0000000000000000
S=1100,A_P=0000000000000000,B_P=0000000000000000
S=1101,A_P=0000000000000000,B_P=0000000000000000
S=1110,A_P=0000000000000000,B_P=0000000000000000
S=1111,A_P=0000000000000000,B_P=0000000000000000
S=0000,A_P=0000000000000001,B_P=0000000000000001
S=0001,A_P=0000000000000001,B_P=1000000000000000
S=0010,A_P=0000000000000001,B_P=0100000000000000
S=0011,A_P=0000000000000001,B_P=0010000000000000
S=0100,A_P=0000000000000001,B_P=0001000000000000
S=0101,A_P=0000000000000001,B_P=0000100000000000
S=0110,A_P=0000000000000001,B_P=0000010000000000
S=0111,A_P=0000000000000001,B_P=0000001000000000
S=1000,A_P=0000000000000001,B_P=0000000100000000
S=1001,A_P=0000000000000001,B_P=0000000010000000
S=1010,A_P=0000000000000001,B_P=0000000001000000
S=1011,A_P=0000000000000001,B_P=0000000000100000
S=1100,A_P=0000000000000001,B_P=0000000000010000
S=1101,A_P=0000000000000001,B_P=0000000000001000
S=1110,A_P=0000000000000001,B_P=0000000000000100
S=1111,A_P=0000000000000001,B_P=0000000000000010
S=0000,A_P=0000000000000010,B_P=0000000000000010
S=0001,A_P=0000000000000010,B_P=0000000000000001
S=0010,A_P=0000000000000010,B_P=1000000000000000
S=0011,A_P=0000000000000010,B_P=0100000000000000
S=0100,A_P=0000000000000010,B_P=0010000000000000
S=0101,A_P=0000000000000010,B_P=0001000000000000
S=0110,A_P=0000000000000010,B_P=0000100000000000
S=0111,A_P=0000000000000010,B_P=0000010000000000
S=1000,A_P=0000000000000010,B_P=0000001000000000
S=1001,A_P=0000000000000010,B_P=0000000100000000
S=1010,A_P=0000000000000010,B_P=0000000010000000
S=1011,A_P=0000000000000010,B_P=0000000001000000
S=1100,A_P=0000000000000010,B_P=0000000000100000
S=1101,A_P=0000000000000010,B_P=0000000000010000
S=1110,A_P=0000000000000010,B_P=0000000000001000
S=1111,A_P=0000000000000010,B_P=0000000000000100
S=0000,A_P=0000000000000011,B_P=0000000000000011
S=0001,A_P=0000000000000011,B_P=1000000000000001
S=0010,A_P=0000000000000011,B_P=1100000000000000
S=0011,A_P=0000000000000011,B_P=0110000000000000
S=0100,A_P=0000000000000011,B_P=0011000000000000
S=0101,A_P=0000000000000011,B_P=0001100000000000
S=0110,A_P=0000000000000011,B_P=0000110000000000
S=0111,A_P=0000000000000011,B_P=0000011000000000
S=1000,A_P=0000000000000011,B_P=0000001100000000
S=1001,A_P=0000000000000011,B_P=0000000110000000
S=1010,A_P=0000000000000011,B_P=0000000011000000
S=1011,A_P=0000000000000011,B_P=0000000001100000
S=1100,A_P=0000000000000011,B_P=0000000000110000
S=1101,A_P=0000000000000011,B_P=0000000000011000
S=1110,A_P=0000000000000011,B_P=0000000000001100
S=1111,A_P=0000000000000011,B_P=0000000000000110
S=0000,A_P=0000000000000100,B_P=0000000000000100
S=0001,A_P=0000000000000100,B_P=0000000000000010
S=0010,A_P=0000000000000100,B_P=0000000000000001
S=0011,A_P=0000000000000100,B_P=1000000000000000
S=0100,A_P=0000000000000100,B_P=0100000000000000
S=0101,A_P=0000000000000100,B_P=0010000000000000
S=0110,A_P=0000000000000100,B_P=0001000000000000
S=0111,A_P=0000000000000100,B_P=0000100000000000
S=1000,A_P=0000000000000100,B_P=0000010000000000
S=1001,A_P=0000000000000100,B_P=0000001000000000
S=1010,A_P=0000000000000100,B_P=0000000100000000
S=1011,A_P=0000000000000100,B_P=0000000010000000
S=1100,A_P=0000000000000100,B_P=0000000001000000
S=1101,A_P=0000000000000100,B_P=0000000000100000
S=1110,A_P=0000000000000100,B_P=0000000000010000
S=1111,A_P=0000000000000100,B_P=0000000000001000
S=0000,A_P=0000000000000101,B_P=0000000000000101
S=0001,A_P=0000000000000101,B_P=1000000000000010
S=0010,A_P=0000000000000101,B_P=0100000000000001
S=0011,A_P=0000000000000101,B_P=1010000000000000
S=0100,A_P=0000000000000101,B_P=0101000000000000
S=0101,A_P=0000000000000101,B_P=0010100000000000
S=0110,A_P=0000000000000101,B_P=0001010000000000
S=0111,A_P=0000000000000101,B_P=0000101000000000
S=1000,A_P=0000000000000101,B_P=0000010100000000
S=1001,A_P=0000000000000101,B_P=0000001010000000
S=1010,A_P=0000000000000101,B_P=0000000101000000
S=1011,A_P=0000000000000101,B_P=0000000010100000
S=1100,A_P=0000000000000101,B_P=0000000001010000
S=1101,A_P=0000000000000101,B_P=0000000000101000
S=1110,A_P=0000000000000101,B_P=0000000000010100
S=1111,A_P=0000000000000101,B_P=0000000000001010
S=0000,A_P=0000000000000110,B_P=0000000000000110
S=0001,A_P=0000000000000110,B_P=0000000000000011
S=0010,A_P=0000000000000110,B_P=1000000000000001
S=0011,A_P=0000000000000110,B_P=1100000000000000
S=0100,A_P=0000000000000110,B_P=0110000000000000
S=0101,A_P=0000000000000110,B_P=0011000000000000
S=0110,A_P=0000000000000110,B_P=0001100000000000
S=0111,A_P=0000000000000110,B_P=0000110000000000
S=1000,A_P=0000000000000110,B_P=0000011000000000
S=1001,A_P=0000000000000110,B_P=0000001100000000
S=1010,A_P=0000000000000110,B_P=0000000110000000
S=1011,A_P=0000000000000110,B_P=0000000011000000
S=1100,A_P=0000000000000110,B_P=0000000001100000
S=1101,A_P=0000000000000110,B_P=0000000000110000
S=1110,A_P=0000000000000110,B_P=0000000000011000
S=1111,A_P=0000000000000110,B_P=0000000000001100
S=0000,A_P=0000000000000111,B_P=0000000000000111
S=0001,A_P=0000000000000111,B_P=1000000000000011
S=0010,A_P=0000000000000111,B_P=1100000000000001
S=0011,A_P=0000000000000111,B_P=1110000000000000
S=0100,A_P=0000000000000111,B_P=0111000000000000
S=0101,A_P=0000000000000111,B_P=0011100000000000
S=0110,A_P=0000000000000111,B_P=0001110000000000
S=0111,A_P=0000000000000111,B_P=0000111000000000
S=1000,A_P=0000000000000111,B_P=0000011100000000
S=1001,A_P=0000000000000111,B_P=0000001110000000
S=1010,A_P=0000000000000111,B_P=0000000111000000
S=1011,A_P=0000000000000111,B_P=0000000011100000
S=1100,A_P=0000000000000111,B_P=0000000001110000
S=1101,A_P=0000000000000111,B_P=0000000000111000
S=1110,A_P=0000000000000111,B_P=0000000000011100
S=1111,A_P=0000000000000111,B_P=0000000000001110
S=0000,A_P=0000000000001000,B_P=0000000000001000
S=0001,A_P=0000000000001000,B_P=0000000000000100
S=0010,A_P=0000000000001000,B_P=0000000000000010
S=0011,A_P=0000000000001000,B_P=0000000000000001
S=0100,A_P=0000000000001000,B_P=1000000000000000
S=0101,A_P=0000000000001000,B_P=0100000000000000
S=0110,A_P=0000000000001000,B_P=0010000000000000
S=0111,A_P=0000000000001000,B_P=0001000000000000
S=1000,A_P=0000000000001000,B_P=0000100000000000
S=1001,A_P=0000000000001000,B_P=0000010000000000
S=1010,A_P=0000000000001000,B_P=0000001000000000
S=1011,A_P=0000000000001000,B_P=0000000100000000
S=1100,A_P=0000000000001000,B_P=0000000010000000
S=1101,A_P=0000000000001000,B_P=0000000001000000
S=1110,A_P=0000000000001000,B_P=0000000000100000
S=1111,A_P=0000000000001000,B_P=0000000000010000
S=0000,A_P=0000000000001001,B_P=0000000000001001
S=0001,A_P=0000000000001001,B_P=1000000000000100
S=0010,A_P=0000000000001001,B_P=0100000000000010
S=0011,A_P=0000000000001001,B_P=0010000000000001
S=0100,A_P=0000000000001001,B_P=1001000000000000
S=0101,A_P=0000000000001001,B_P=0100100000000000
S=0110,A_P=0000000000001001,B_P=0010010000000000
S=0111,A_P=0000000000001001,B_P=0001001000000000
S=1000,A_P=0000000000001001,B_P=0000100100000000
S=1001,A_P=0000000000001001,B_P=0000010010000000
S=1010,A_P=0000000000001001,B_P=0000001001000000
S=1011,A_P=0000000000001001,B_P=0000000100100000
S=1100,A_P=0000000000001001,B_P=0000000010010000
S=1101,A_P=0000000000001001,B_P=0000000001001000
S=1110,A_P=0000000000001001,B_P=0000000000100100
S=1111,A_P=0000000000001001,B_P=0000000000010010
S=0000,A_P=0000000000001010,B_P=0000000000001010
S=0001,A_P=0000000000001010,B_P=0000000000000101
S=0010,A_P=0000000000001010,B_P=1000000000000010
S=0011,A_P=0000000000001010,B_P=0100000000000001
S=0100,A_P=0000000000001010,B_P=1010000000000000
S=0101,A_P=0000000000001010,B_P=0101000000000000
S=0110,A_P=0000000000001010,B_P=0010100000000000
S=0111,A_P=0000000000001010,B_P=0001010000000000
S=1000,A_P=0000000000001010,B_P=0000101000000000
S=1001,A_P=0000000000001010,B_P=0000010100000000
S=1010,A_P=0000000000001010,B_P=0000001010000000
S=1011,A_P=0000000000001010,B_P=0000000101000000
S=1100,A_P=0000000000001010,B_P=0000000010100000
S=1101,A_P=0000000000001010,B_P=0000000001010000
S=1110,A_P=0000000000001010,B_P=0000000000101000
S=1111,A_P=0000000000001010,B_P=0000000000010100
S=0000,A_P=0000000000001011,B_P=0000000000001011
S=0001,A_P=0000000000001011,B_P=1000000000000101
S=0010,A_P=0000000000001011,B_P=1100000000000010
S=0011,A_P=0000000000001011,B_P=0110000000000001
S=0100,A_P=0000000000001011,B_P=1011000000000000
S=0101,A_P=0000000000001011,B_P=0101100000000000
S=0110,A_P=0000000000001011,B_P=0010110000000000
S=0111,A_P=0000000000001011,B_P=0001011000000000
S=1000,A_P=0000000000001011,B_P=0000101100000000
S=1001,A_P=0000000000001011,B_P=0000010110000000
S=1010,A_P=0000000000001011,B_P=0000001011000000
S=1011,A_P=0000000000001011,B_P=0000000101100000
S=1100,A_P=0000000000001011,B_P=0000000010110000
S=1101,A_P=0000000000001011,B_P=0000000001011000
S=1110,A_P=0000000000001011,B_P=0000000000101100
S=1111,A_P=0000000000001011,B_P=0000000000010110
S=0000,A_P=0000000000001100,B_P=0000000000001100
S=0001,A_P=0000000000001100,B_P=0000000000000110
S=0010,A_P=0000000000001100,B_P=0000000000000011
S=0011,A_P=0000000000001100,B_P=1000000000000001
S=0100,A_P=0000000000001100,B_P=1100000000000000
S=0101,A_P=0000000000001100,B_P=0110000000000000
S=0110,A_P=0000000000001100,B_P=0011000000000000
S=0111,A_P=0000000000001100,B_P=0001100000000000
S=1000,A_P=0000000000001100,B_P=0000110000000000
